Device Title,Client,Gateway,Device Category,Service Group ,IP Address
Windows Host,Eventedge,Eventedge Nagios Gateway1,Windows Servers,,10.10.32.59
avayanode,Eventedge,Eventedge Nagios Gateway1,Linux Servers,,192.168.2.32
Web Server,Eventedge,Eventedge Nagios Gateway1,Linux Servers,,10.10.32.34
dcca,Eventedge,Eventedge Nagios Gateway1,Windows Servers,,10.10.32.30
10.10.33.72,Eventedge,Eventedge Nagios Gateway1,Windows Servers,,10.10.33.72
hp5637cf.tenneti.co.in,Eventedge,Eventedge Nagios Gateway1,Printers,,192.168.1.5
Core Switch,Eventedge,Eventedge Nagios Gateway1,Switches,,10.10.32.2
Inspire-SW3,Eventedge,Eventedge Nagios Gateway1,Switches,,10.10.32.3
Inspire-SW4,Eventedge,Eventedge Nagios Gateway1,Switches,,10.10.32.4
localhost,Eventedge,Eventedge Nagios Gateway1,Windows Servers,,127.0.0.1
10.10.32.111,Eventedge,Eventedge Nagios Gateway1,Windows Servers,,10.10.32.111
10.10.33.111,Eventedge,Eventedge Nagios Gateway1,Windows Servers,,10.10.33.111
10.10.32.29,Eventedge,Eventedge Nagios Gateway1,Windows Servers,,10.10.32.29
10.10.32.49,Eventedge,Eventedge Nagios Gateway1,Windows Servers,,10.10.32.49
